Engine/Binaries/Win64/UE4Game.pdb	2023-01-06T21:24:24.815Z
Engine/Content/SlateDebug/Fonts/LastResort.tps	2023-01-06T21:24:54.612Z
Engine/Content/SlateDebug/Fonts/LastResort.ttf	2023-01-06T21:24:54.624Z
Engine/Binaries/ThirdParty/PhysX3/Win64/VS2015/PxFoundationPROFILE_x64.pdb	2023-01-06T21:23:40.221Z
Engine/Binaries/ThirdParty/PhysX3/Win64/VS2015/PxPvdSDKPROFILE_x64.pdb	2023-01-06T21:23:40.437Z
Engine/Binaries/ThirdParty/PhysX3/Win64/VS2015/PhysX3PROFILE_x64.pdb	2023-01-06T21:23:40.176Z
Engine/Binaries/ThirdParty/PhysX3/Win64/VS2015/PhysX3CookingPROFILE_x64.pdb	2023-01-06T21:23:39.903Z
Engine/Binaries/ThirdParty/PhysX3/Win64/VS2015/PhysX3CommonPROFILE_x64.pdb	2023-01-06T21:23:39.848Z
Engine/Binaries/ThirdParty/PhysX3/Win64/VS2015/APEX_ClothingPROFILE_x64.pdb	2023-01-06T21:23:37.825Z
Engine/Binaries/ThirdParty/PhysX3/Win64/VS2015/APEX_LegacyPROFILE_x64.pdb	2023-01-06T21:23:38.808Z
Engine/Binaries/ThirdParty/PhysX3/Win64/VS2015/ApexFrameworkPROFILE_x64.pdb	2023-01-06T21:23:39.042Z
Engine/Binaries/ThirdParty/PhysX3/Win64/VS2015/NvClothPROFILE_x64.pdb	2023-01-06T21:23:39.105Z
